Filename,Author last name,Author first name,Organisation,Publication date,Title,Copyright status,Copyright holder,DOI or URL,Attachments,Status,Priority,Person assigned,Date assigned,Notes,Capture date,preface
omc000001,UNAIDS,,UNAIDS,2014,90-90-90: An ambitious treatment target to help end the AIDS epidemic,copyright granted,Joint United Nations Programme on HIV/AIDS (UNAIDS),https://www.unaids.org/en/resources/909090,UNAIDS 90-90-90 strategy report.pdf (https://dl.airtable.com/.attachments/82ac3fd99e8cfd7ddf48b190563ec212/c86c1842/1_ORIGINALPDFUNAIDS90-90-90strategyreport.pdf),Indexed,High,Marcela,25/2/2022,,,
omc000002,UNAIDS,,UNAIDS ,1998,AIDS Epidemic Update - December 1998,copyright granted,UNAIDS,https://data.unaids.org/publications/irc-pub06/epiupdate98_en.pdf,epiupdate98_en.pdf (https://dl.airtable.com/.attachments/a258ba06e8b3381f5ace70798b22dee6/9a4ddf92/epiupdate98_en.pdf),Indexed,High,Gustavo,20/9/2021,"Completed 05/10/21 
Check name formatting",,
omc000003,UNAIDS,,UNAIDS,2000,Report on the global HIV/AIDS epidemic – June 2000,copyright granted,UNAIDS,https://data.unaids.org/pub/report/2000/2000_gr_en.pdf,2000.pdf (https://dl.airtable.com/.attachments/9a1256562266b6e5fd71f9be9c49f8c3/68c4c345/2000.pdf),Indexed,High,Hammood,20/9/2021,"Completed 25/10/2021 
Check name formatting",,V
omc000004,UNAIDS,,UNAIDS,2006,2006 Report on the global AIDS epidemic,copyright granted,UNAIDS,https://data.unaids.org/pub/report/2006/2006_gr_en.pdf,2006.pdf (https://dl.airtable.com/.attachments/94014d45508ef0f9cfab72ee9114f8bf/0cf2b16c/2006.pdf),Indexed,High,Kyunghye,24/9/2021,Completed 02/02/22,,V
omc000006,UNAIDS,,UNAIDS ,2015,On the Fast-Track to End AIDS. 2016-2021 Strategy ,copyright granted,UNAIDS,https://www.childrenandaids.org/sites/default/files/2017-04/UNAIDS_On-the-Fast-Track-to-End-AIDS_2016.pdf,2015.pdf (https://dl.airtable.com/.attachments/aa5b2fbf9953e4258436a1923e8b35de/e4a61cb1/2015.pdf),Indexed,High,Gustavo,5/10/2021,Check name formatting.,,
omc000007,WHO,,WHO,2020,Understanding the infodemic and misinformation in the fight against COVID-19 ,CC BY-NC-SA 3.0 IGO,"Pan American Health Organization, WHO",https://iris.paho.org/bitstream/handle/10665.2/52052/Factsheet-infodemic_eng.pdf?sequence=16,Factsheet-infodemic_eng.pdf (https://dl.airtable.com/.attachments/9572fd70b5e746bc2f094e3d376d02e2/0d96699c/Factsheet-infodemic_eng.pdf),Indexed,High,Gustavo,14/10/2021,Completed 26/10. Issue with organisation tag in DTD.,,
omc000008,WHO,,WHO,2020,The potential of frequently used information technologies during the pandemic,CC BY-NC-SA 3.0 IGO,"Pan American Health Organization, WHO",https://iris.paho.org/handle/10665.2/52021,Factsheet-TICs_eng.pdf (https://dl.airtable.com/.attachments/035ebfe9a2b45c01bf77187739009df0/9cc2a55a/Factsheet-TICs_eng.pdf),Indexed,High,Hammood,14/10/2021,Check name formatting,,
omc000009,WHO,,WHO,2005,WHO outbreak communication guidelines,CC BY-NC-SA 3.0 IGO,WHO,https://www.who.int/publications/i/item/who-outbreak-communication-guidelines,WHO_CDS_2005_28_eng.pdf (https://dl.airtable.com/.attachments/73d4d532dd165219979ac371ea628e6d/34b38886/WHO_CDS_2005_28_eng.pdf),Indexed,High,Hammood,24/10/2021,"Check name formatting
",,
omc000010,WHO,,WHO,2021,Strengthening WHO preparedness for and response to health emergencies,CC BY-NC-SA 3.0 IGO,WHO,https://apps.who.int/gb/ebwha/pdf_files/WHA74/A74_ACONF2-en.pdf,A74_ACONF2-en.pdf (https://dl.airtable.com/.attachments/1ddc5a4b92ac371e82290f29ef55170d/ef5583e5/A74_ACONF2-en.pdf),Indexed,High,Kyunghye,25/10/2021,Completed 25/10. Issue with document format still to resolve. Revised and completed 25/11/21.,,
omc000011,WHO,,WHO,2020,COVID-19 response,CC BY-NC-SA 3.0 IGO,WHO,https://apps.who.int/gb/ebwha/pdf_files/WHA73/A73_R1-en.pdf,A73_R1-en.pdf (https://dl.airtable.com/.attachments/33f3ca8f7a532eea319de299f649f063/9afda9a7/A73_R1-en.pdf),Indexed,High,Kyunghye,26/10/2021,Completed 27/10. Issue with name and document format to resolve. Revised and completed 25/11/21.,,
omc000012,UN,,UN,2021,Global Media and Information Literacy Week,CC BY-NC-SA 3.0 IGO,UN,https://undocs.org/pdf?symbol=en/A/75/L.68,A_75_L_68_E.pdf (https://dl.airtable.com/.attachments/45fe3b24e04a04738a16e585700ed51b/f8ec8b76/A_75_L_68_E.pdf),Indexed,High,Gustavo,29/10/2021,Completed 18/11/21.,,
omc000013,WHO,,WHO,2021,WHO competency framework: Building a response workforce to manage infodemics,CC BY-NC-SA 3.0 IGO,WHO,"https://www.who.int/publications/i/item/9789240035287, https://www.who.int/health-topics/infodemic#tab=tab_1",9789240035287-eng.pdf (https://dl.airtable.com/.attachments/6824c396d479a2957166b6781b607f16/5af42f8e/9789240035287-eng.pdf),Indexed,High,Kyunghye,29/10/2021,Completed 29/11/21. ,,
omc000014,WHO,,WHO,2020,"An ad hoc WHO technical consultation managing the COVID-19 infodemic: call for action,",CC BY-NC-SA 3.0 IGO,"WHO, infodemic management","https://www.who.int/publications/i/item/9789240010314, https://www.who.int/health-topics/infodemic#tab=tab_1",9789240010314-eng.pdf (https://dl.airtable.com/.attachments/4716ace88fe81396565a6a5aa4aa157a/c464bfac/9789240010314-eng.pdf),Indexed,High,Hammood,30/10/2021,Completed 29/11/21. ,,
omc000015,WHO,,WHO,2017,Communicating risk in public health emergencies,CC BY-NC-SA 3.0 IGO,WHO,"https://www.who.int/publications/i/item/9789241550208, https://www.who.int/health-topics/infodemic#tab=tab_1",9789241550208-eng.pdf (https://dl.airtable.com/.attachments/f50ce9c4da3097af182b6a6276861aa7/c6bd465f/9789241550208-eng.pdf),Indexed,High,Gustavo,4/11/2021,Completed 17/11/21.,,
omc000016,WHO,,WHO,2021,WHO public health research agenda for managing infodemics,CC BY-NC-SA 3.0 IGO,"WHO, infodemic management","https://www.who.int/publications/i/item/9789240019508, https://www.who.int/health-topics/infodemic#tab=tab_1",9789240019508-eng.pdf (https://dl.airtable.com/.attachments/9b1127e94c9a39dfcc0084767ff3f6a1/23f1a5ae/9789240019508-eng.pdf),Indexed,High,Hammood,9/11/2021,Completed 29/11/21.,,
omc000017,UNAIDS,,UNAIDS,2008,2008 UNAIDS Annual Report,copyright granted,UNAIDS,https://www.unaids.org/sites/default/files/media_asset/jc1736_2008_annual_report_en_1.pdf,2008.pdf (https://dl.airtable.com/.attachments/a27fababf694de52bdbb7134bf55d4fa/fc667bfd/2008.pdf),Indexed,High,Marcela,30/11/2021,For test - files revised and checked by Kyunghye. Final version sent to Henry 28.12.21,,
omc000018,UN,,UN,2001,Road map towards the implementation of the United Nations Millennium Declaration,copyright granted,UN,https://www.un.org/millenniumgoals/sgreport2001.pdf?OpenElement,sgreport2001.pdf (https://dl.airtable.com/.attachments/8907486551d958b1e81634efa531a809/f7472e21/sgreport2001.pdf),Indexed,High,Hammood,29/11/2021,"Completed 5/12/21 by Hammood, confirmed 13/12/21",,
omc000019,UN,,UN,2014,"The Road to Dignity by 2030: Ending Poverty, Transforming All Lives and Protecting the Planet - Synthesis Report of the Secretary-General on the Post-2015 Agenda. ",copyright granted,UN,http://www.un.org/disabilities/documents/reports/SG_Synthesis_Report_Road_to_Dignity_by_2030.pdf,SG_Synthesis_Report_Road_to_Dignity_by_2030.pdf (https://dl.airtable.com/.attachments/e82ff6b4a8c1dbd9af1ab18f88ebb639/9e29b390/SG_Synthesis_Report_Road_to_Dignity_by_2030.pdf),Indexed,High,Gustavo,29/11/2021,Completed 16/12/21,,
omc000020,UN,,UN,2015,Transforming our world: the 2030 agenda for sustainable development (A/RES/70/1). ,copyright granted,UN,http://www.un.org/ga/search/view_doc.asp?symbol=A/RES/70/1&Lang=E,N1529189.pdf (https://dl.airtable.com/.attachments/73983275d14150b5c27c38f670bde159/347d307d/N1529189.pdf),Indexed,High,Kyunghye,29/11/2021,Completed 07/12/21,,
omc000021,UN,,UN,2019,"Realizing the SDGs for All: Ensuring inclusiveness and equality for every person, everywhere",copyright granted,UN,https://sustainabledevelopment.un.org/content/documents/23216Together_2030__Position_Paper__HLPF_2019.pdf,23216Together_2030__Position_Paper__HLPF_2019.pdf (https://dl.airtable.com/.attachments/89829feae6ded27a00cd0dafc47994ad/78a6950d/23216Together_2030__Position_Paper__HLPF_2019.pdf),Indexed,High,Kyunghye,30/11/2021,,,
omc000022,ECDC,,ECDC,2007,Core competencies in epidemiology: surveillance and response,Public domain,ECDC,https://www.ecdc.europa.eu/en/publications-data/core-competencies-epidemiology-surveillance-and-response,0701_MER_Core_Competencies_in_Epidemiology.pdf (https://dl.airtable.com/.attachments/c49bbb21d65035c4535097088961e240/2ac0608c/0701_MER_Core_Competencies_in_Epidemiology.pdf),Indexed,,Gina,1/12/2021,For test,,
omc000023,UN ,,UN,2015,MDG Gap Task Force. Taking stock of the Global partnership for development,copyright granted,UN,https://www.un.org/millenniumgoals/pdf/MDG_Gap_2015_E_web.pdf,MDG_Gap_2015_E_web.pdf (https://dl.airtable.com/.attachments/39da34c5cbfc0c5f35908bf0ae7a6fec/fa02af9c/MDG_Gap_2015_E_web.pdf),Indexed,High,Marcela,10/3/2022,"reassigned to Marcela
",,V
omc000024,UN,,UN,1992,Agenda 21 Sustainable Developement,copyright granted,UN,https://sustainabledevelopment.un.org/outcomedocuments/agenda21,Agenda21.pdf (https://dl.airtable.com/.attachments/979337d367cb51fc7919c40aa6ec6aa9/eafdfe11/Agenda21.pdf),Indexed,High,Hammood,13/12/2021,Completed 11/01/22,,
omc000025,UN/World Commission on Environment and Development,,UN/World Commission on Environment and Development,1987,Our Common Future (The Brundtland report). ,copyright granted,UN,https://sustainabledevelopment.un.org/content/documents/5987our-common-future.pdf,5987our-common-future.pdf (https://dl.airtable.com/.attachments/bf8cded7f1eaf7acc8042e0b6848ac1b/d750167d/5987our-common-future.pdf),Indexed,High,Gustavo,17/12/2021,Completed 02/02/2022,,
omc000026,UNAIDS,,UNAIDS,2018,"Miles to go—closing gaps, breaking barriers, righting injustices",copyright granted,UNAIDS,https://www.unaids.org/sites/default/files/media_asset/miles-to-go_en.pdf,2018.pdf (https://dl.airtable.com/.attachments/8499a43bccd12f49f8809f1cce1ee997/0fcf92c6/2018.pdf),Indexed,High,Hammood,27/12/2021,,,
omc000027,UNAIDS,,UNAIDS,2017,Ending AIDS: progress towards the 90–90–90 targets,copyright granted,UNAIDS,https://www.unaids.org/sites/default/files/media_asset/Global_AIDS_update_2017_en.pdf,2017.pdf (https://dl.airtable.com/.attachments/7f8cb3bdbe5575b890487b44d7887f9e/fb64566c/2017.pdf),Indexed,High,Marcela,28/12/2021,Files in revised files Jan22 folder,,
omc000029,,,UNAIDS,2003,AIDS epidemic update,copyright granted,UNAIDS,https://data.unaids.org/pub/report/2003/2003_epiupdate_en.pdf,2003_epiupdate_en.pdf (https://dl.airtable.com/.attachments/4255d2403b107c2d2645c0f12e5b8573/055007e1/2003_epiupdate_en.pdf),Indexed,High,Marcela,10/1/2022,Files in revised files Jan22 folder,,V
omc000031,,,UNAIDS,2019,Global AIDS update 2019 — Communities at the centre,copyright granted,UNAIDS,https://www.unaids.org/sites/default/files/media_asset/2019-global-AIDS-update_en.pdf,2019-G~1.PDF (https://dl.airtable.com/.attachments/89abd4c613e2145cf44e4f51b50e2636/14882f53/2019-G1.PDF),Indexed,High,Marcela,13/1/2022,,,
omc000032,,,UNAIDS,2010,Report on the global AIDS epidemic,copyright granted,UNAIDS,https://www.unaids.org/globalreport/documents/20101123_GlobalReport_full_en.pdf,20101123_GlobalReport_full_en.pdf (https://dl.airtable.com/.attachments/7a66750c488c70c928b0ab96f101fe06/c49de8f1/20101123_GlobalReport_full_en.pdf),Indexed,High,Gustavo,28/1/2022,,,
omc000033,UNAIDS,UNAIDS,UNAIDS,1999,The UNAIDS Report,copyright granted,UNAIDS,https://data.unaids.org/publications/irc-pub01/jc208-corpreport_en.pdf,1999.pdf (https://dl.airtable.com/.attachments/7c6b5f734dd36345a81720df2058ab18/f9b3f8c9/1999.pdf),Indexed,High,Hammood,9/2/2022,,,V
omc000034,,,UNAIDS,2016,Global AIDS Update 2016,copyright granted,UNAIDS,https://www.unaids.org/sites/default/files/media_asset/global-AIDS-update-2016_en.pdf,2016.pdf (https://dl.airtable.com/.attachments/c2fb70c9ca7b391459f125b0a95b9da9/8cf38d48/2016.pdf),Indexed,High,Hammood,27/2/2022,,,
omc000035,UNAIDS,,UNAIDS,2002,Report on the global,copyright granted,UNAIDS ,https://data.unaids.org/pub/report/2002/brglobal_aids_report_en_pdf_red_en.pdf,2002.pdf (https://dl.airtable.com/.attachments/a648ebe8d9c4539285d5608dee21fadb/de9a553c/2002.pdf),Indexed,High,Gustavo,1/3/2022,,,V
omc000036,UNAIDS,,UNAIDS,2005,AIDS Epidemic update 2005,copyright granted,UNAIDS,https://data.unaids.org/publications/irc-pub06/epi_update2005_en.pdf,2005.pdf (https://dl.airtable.com/.attachments/db2c33ca9492876ce0c97bd3e5225562/9d844641/2005.pdf),Indexed,High,Marcela,6/3/2022,,,
omc000038,UNAIDS,,UNAIDS,2007,AIDS Epidemic Update 2007,copyright granted,UNAIDS,https://data.unaids.org/pub/epislides/2007/2007_epiupdate_en.pdf,2007_epiupdate_en.pdf (https://dl.airtable.com/.attachments/2c76545fa5ab5f7f7e0d9ffd3ed1536b/978a7308/2007_epiupdate_en.pdf),Indexed,High,Marcela,14/3/2022,,,
omc000039,,,UNAIDS,2004,2004 report on the global HIV/AIDS epidemic : 4th global report,copyright granted,UNAIDS,https://files.unaids.org/en/media/unaids/contentassets/documents/unaidspublication/2004/GAR2004_en.pdf,2004_en.pdf (https://dl.airtable.com/.attachments/df0c78631912edb76115a9808cb8b8fc/62ddef1a/2004_en.pdf),Indexed,High,Marcela,14/3/2022,,,V
omc000041,,,UNAIDS,2012,UNAIDS Report on the global AIDS epidemic ,copyright granted,UNAIDS,https://www.unaids.org/sites/default/files/media_asset/20121120_UNAIDS_Global_Report_2012_with_annexes_en_1.pdf,2012.pdf (https://dl.airtable.com/.attachments/a6fd197e15354c8aefdddcb7723c3ff8/b58a6774/2012.pdf),Indexed,High,Gustavo,21/3/2022,,,
omc000042,,,UNAIDS,2013,UNAIDS Report on the global AIDS epidemic 2013,copyright granted,UNAIDS,https://www.unaids.org/sites/default/files/media_asset/UNAIDS_Global_Report_2013_en_1.pdf,2013.pdf (https://dl.airtable.com/.attachments/82445922d8c047b40fa4bf46ef9443e6/b3309952/2013.pdf),Indexed,High,Marcela,22/3/2022,,,
omc000044,WHO,,WHO,2017,Action Plan for Sexual and Reproductive Health. Towards achieving the 2030 Agenda for Sustainable Development in Europe – leaving no one behind. ,CC BY-NC-SA 3.0 IGO,WHO,http://www.euro.who.int/__data/assets/pdf_file/0018/314532/66wd13e_SRHActionPlan_160524.pdf,66wd13e_SRHActionPlan_160524.pdf (https://dl.airtable.com/.attachments/4a587a84990e5731edb6b2a55954b094/359d08b0/66wd13e_SRHActionPlan_160524.pdf),Indexed,High,Gustavo,25/3/2022,,,
omc000046,Government of India,,Government of India,2018,Guidance for developing State Action PLans for Containment of Antimicrobial Resistance (SAPCAR),Public domain,Government of India,https://ncdc.gov.in/WriteReadData/linkimages/AMR/SAPCAR.pdf,India-guidelines for developing action plans SAPCAR.pdf (https://dl.airtable.com/.attachments/bdf65f6b512e2b5f055c789a4beb1682/b4c3f813/India-guidelinesfordevelopingactionplansSAPCAR.pdf),Indexed,high,Kyunghye,4/4/2022,"
",,
omc000047,Government of India,,Government of India,2017,National Action Plan on Antimicrobial Resistance (NAP-AMR) 2017 ,Public domain,Government of India,https://www.ncdc.gov.in/WriteReadData/linkimages/AMR/File645.pdf,India.pdf (https://dl.airtable.com/.attachments/8e2d3c0da8965d33bd2cb95d740d8427/eef2c88f/India.pdf),Indexed,high,Kyunghye,4/4/2022,,,
omc000048,Government of India (Government of Kerala) ,,Government of India,2018,Kerala Antimicrobial Resistance Strategic Action Plan,Public domain,Government of India,https://ncdc.gov.in/WriteReadData/l892s/35158354141579866436.pdf,Kerala.pdf (https://dl.airtable.com/.attachments/c1157ea8ab5fecfdac195813fbf14720/b9b0700a/Kerala.pdf),Indexed,high,Marcela,19/4/2022,"
",,
omc000053,ECDC,,ECDC,2008,"Core competencies for public health epidemiologists working in the area of communicable disease surveillance and response, in the European Union",Public domain,ECDC,https://www.ecdc.europa.eu/en/publications-data/core-competencies-public-health-epidemiologists-working-area-communicable-disease,0801_TED_Core_Competencies_for_Public_Health_Epidemiologists.pdf (https://dl.airtable.com/.attachments/a333d5fdbe0dcfbe6ad7e2f04a4eaee8/c32c9caa/0801_TED_Core_Competencies_for_Public_Health_Epidemiologists.pdf),Indexed,,Gustavo,1/4/2022,,,
omc000055,Government of India,,Government of India,2021,World Antimicrobial Awareness Week Report State Level Activities,Public domain,Government of India,https://ncdc.gov.in/WriteReadData/linkimages/AMR/WAAWReportStateLevelactivities.pdf,WAAWReportStateLevelactivities.pdf (https://dl.airtable.com/.attachments/159fa2eac05a9f1df5f88a67e8419008/96c40e10/WAAWReportStateLevelactivities.pdf),Indexed,high,June,5/4/2022,test,,
omc000058,Wellcome Trust,,Wellcome Trust,2020,The Global Response to AMR,CC BY,Wellcome Trust,https://cms.wellcome.org/sites/default/files/2020-11/wellcome-global-response-amr-report.pdf,Wellcome-Global-Response-amr-report.pdf (https://dl.airtable.com/.attachments/99dbee2ee044af8c4f0a214541fa8883/049dcbfb/Wellcome-Global-Response-amr-report.pdf),Indexed,High,Marcela,7/4/2022,,,
omc000061,Government of India  ,,Government of India,2019,Madhya Pradesh State Action PLan for Containment of Antimicrobial Resistance (MP-SAPCAR),Public domain,Government of India,https://ncdc.gov.in/showfile.php?lid=442,Madhya Pradesh.pdf (https://dl.airtable.com/.attachments/c5e91ac3da8513cffa4e937ff4c235c5/383d1ce3/MadhyaPradesh.pdf),Indexed,high,Marcela,8/4/2022,,,
omc000063,Governmet of Sri Lanka,,Government of Sri Lanka,2017,National Strategic Plan for Combating Antimicrobial Resistance in Sri Lanka 2017-2022,Public domain,Government of Sri Lanka,http://www.health.gov.lk/moh_final/english/others.php?pid=127,National Strategic Plan for Combating Antimicrobial Resistance in Sri Lanka.pdf (https://dl.airtable.com/.attachments/68a6fd9268deb73c148594e85f83f29c/513ab905/NationalStrategicPlanforCombatingAntimicrobialResistanceinSriLanka.pdf),Indexed,high,Marcela,11/4/2022,"In Gaby's folder omcsrilankaamrpolicy
",,
omc000065,Health Action International,,Health Action International,2019,Putting Access at the Heart of Medicines Policy,CC BY-NC-SA 4.0,Health Action International,https://haiweb.org/wp-content/uploads/2019/07/Annual-Report-2018.pdf,HAI putting access medicine polity.pdf (https://dl.airtable.com/.attachments/fe2e42cb75fac530e2a0316d6e1cca06/94ac525d/HAIputtingaccessmedicinepolity.pdf),Indexed,,Marcela,11/4/2022,,,
omc000068,Health Action International,,Health Action International,2021,The State of Transparency and Medicines Policy in the EU,Public domain,Health Action International,https://haiweb.org/wp-content/uploads/2021/09/State_of_Transparency_EU_2021.pdf,State_of_Transparency_EU_2021.pdf (https://dl.airtable.com/.attachments/3d9bae14c998ec99610c7968b7be4d66/7aeb958f/State_of_Transparency_EU_2021.pdf),Indexed,,Marcela,14/4/2022,,,
omc000070,Health Action International,,Health Action International,2020,Medicines Policy that Works for People,Public domain,Health Action International,https://haiweb.org/wp-content/uploads/2020/01/EU-Medicines-Policy-Priorities-2020-2024.pdf,HAI EU medicines policy priorities.pdf (https://dl.airtable.com/.attachments/8bf230a0a271aede411a8b3709747423/2a21d509/HAIEUmedicinespolicypriorities.pdf),Indexed,,Marcela,14/4/2022,,,
