"","annotator","file","image","class","order","family","qualifier","type","axis","line","orientation","arrangement"
"2044","Gustavo","omc000035.xml","omc000035-figure-11.png","analogram","histogram","absolute","band",NA,NA,NA,"vertical",NA
"2272","Gustavo","omc000041.xml","omc000041-figure-3.png","analogram","histogram","absolute","band",NA,NA,NA,"horizontal","paired"
"2069","Gustavo","omc000035.xml","omc000035-figure-32.png","analogram","histogram","absolute","band",NA,NA,NA,"vertical",NA
"2071","Gustavo","omc000035.xml","omc000035-figure-34.png","analogram","puncticurvigram","puncticurvigramfamily","puncticurvigramqualifier",NA,NA,NA,NA,NA
"2045","Gustavo","omc000035.xml","omc000035-figure-12.png","analogram","histogram","absolute","band",NA,NA,NA,"vertical",NA
"2057","Gustavo","omc000035.xml","omc000035-figure-22.png","analogram","histogram","absolute","band",NA,NA,NA,"vertical",NA
"1552","Gustavo","omc000032.xml","omc000032-figure-31.png","analogram","puncticurvigram","puncticurvigramfamily","puncticurvigramqualifier",NA,NA,NA,NA,NA
"2322","Gustavo","omc000041.xml","omc000041-figure-29.png","analogram","histogram","absolute","band",NA,NA,NA,"vertical",NA
"1506","Gustavo","omc000032.xml","omc000032-figure-2.png","analogram","histogram","absolute","band",NA,NA,NA,"horizontal","paired"
"2288","Gustavo","omc000041.xml","omc000041-figure-9.png","analogram","punctigram","punctigramfamily","bivariate",NA,NA,NA,NA,NA
"1620","Gustavo","omc000032.xml","omc000032-figure-65.png","analogram","histogram","absolute","band",NA,NA,NA,"vertical",NA
"951","Hammood","omc000026.xml","omc000026-fig-17.16.png","analogram","histogram","absolute","band",NA,NA,NA,"vertical","stacked"
"899","Hammood","omc000026.xml","omc000026-fig-14.15.png","analogram","histogram","absolute","band",NA,NA,NA,"vertical",NA
"975","Hammood","omc000026.xml","omc000026-fig-19.7.png","analogram","histogram","proportional","circle",NA,NA,NA,NA,NA
"871","Hammood","omc000026.xml","omc000026-fig-13.5.png","analogram","curvigram","curvigramfamily","description",NA,NA,NA,NA,NA
"52","Hammood","omc000003.xml","omc000003-fig-15.png","analogram","histogram","absolute","band",NA,NA,NA,"vertical","paired"
"987","Hammood","omc000026.xml","omc000026-fig-20.7.png","analogram","histogram","proportional","circle",NA,NA,NA,NA,NA
"870","Hammood","omc000026.xml","omc000026-fig-13.4.png","analogram","curvigram","curvigramfamily","description",NA,NA,NA,NA,NA
"900","Hammood","omc000026.xml","omc000026-fig-14.16.png","analogram","histogram","absolute","band",NA,NA,NA,"vertical","stacked"
"919","Hammood","omc000026.xml","omc000026-fig-16.2.png","analogram","curvigram","curvigramfamily","description",NA,NA,NA,NA,NA
"863","Hammood","omc000026.xml","omc000026-fig-12.3.png","analogram","histogram","proportional","circle",NA,NA,NA,NA,NA
"2023","Hammood","omc000034.xml","omc000034-fig-5.png","analogram","curvigram","curvigramfamily","description",NA,NA,NA,NA,NA
"176","Kyunghye","omc000004.xml","omc000004-figure-94.png","analogram","histogram","absolute","band",NA,NA,NA,"horizontal","paired"
"133","Kyunghye","omc000004.xml","omc000004-figure-52.png","analogram","puncticurvigram","puncticurvigramfamily","puncticurvigramqualifier",NA,NA,NA,NA,NA
"204","Kyunghye","omc000004.xml","omc000004-figure-123.png","analogram","histogram","proportional","circle",NA,NA,NA,NA,NA
"224","Kyunghye","omc000004.xml","omc000004-figure-143.png","analogram","histogram","absolute","band",NA,NA,NA,"vertical",NA
"96","Kyunghye","omc000004.xml","omc000004-figure-15.png","analogram","histogram","absolute","band",NA,NA,NA,"vertical",NA
"218","Kyunghye","omc000004.xml","omc000004-figure-137.png","analogram","histogram","absolute","band",NA,NA,NA,"horizontal","opposed"
"128","Kyunghye","omc000004.xml","omc000004-figure-47.png","analogram","puncticurvigram","puncticurvigramfamily","puncticurvigramqualifier",NA,NA,NA,NA,NA
"118","Kyunghye","omc000004.xml","omc000004-figure-35.png","analogram","histogram","absolute","band",NA,NA,NA,"vertical",NA
"119","Kyunghye","omc000004.xml","omc000004-figure-36.png","analogram","histogram","absolute","band",NA,NA,NA,"vertical",NA
"120","Kyunghye","omc000004.xml","omc000004-figure-37.png","analogram","histogram","absolute","band",NA,NA,NA,"vertical",NA
"129","Kyunghye","omc000004.xml","omc000004-figure-48.png","analogram","histogram","absolute","band",NA,NA,NA,"vertical",NA
"1225","Marcela","omc000031.xml","omc000031-figure-3-16.png","analogram","histogram","absolute","band",NA,NA,NA,"vertical","stacked"
"1125","Marcela","omc000027.xml","omc000027-figure-11-10.png","analogram","histogram","absolute","band",NA,NA,NA,"vertical","stacked"
"742","Marcela","omc000023.xml","omc000023fig23.png","analogram","histogram","absolute","band",NA,NA,NA,"horizontal","paired"
"1292","Marcela","omc000031.xml","omc000031-figure-7-6.png","analogram","histogram","proportional","circle",NA,NA,NA,NA,NA
"2237","Marcela","omc000039.xml","omc000039-fig-48.png","analogram","histogram","absolute","band",NA,NA,NA,"vertical",NA
"20","Marcela","omc000001.xml","omc000001-figure-19.png","analogram","histogram","absolute","band",NA,NA,NA,"vertical","stacked"
"1157","Marcela","omc000029.xml","omc000029-figure-3.png","analogram","puncticurvigram","puncticurvigramfamily","puncticurvigramqualifier",NA,NA,NA,NA,NA
"1163","Marcela","omc000029.xml","omc000029-figure-9.png","analogram","histogram","absolute","band",NA,NA,NA,"vertical",NA
"1399","Marcela","omc000031.xml","omc000031-figure-13-13.png","analogram","histogram","absolute","band",NA,NA,NA,"vertical","paired"
"1400","Marcela","omc000031.xml","omc000031-figure-13-14.png","analogram","histogram","absolute","band",NA,NA,NA,"vertical",NA
"2469","Marcela","omc000042.xml","omc000042-fig-6-6.png","analogram","histogram","absolute","band",NA,NA,NA,"vertical",NA
"2324","Gustavo","omc000041.xml","omc000041-figure-31.png","cosmogram","topogram","ecogram","statistical",NA,NA,NA,NA,NA
"2068","Gustavo","omc000035.xml","omc000035-image-7.png","cosmogram","reigram","reigramfamily","descriptive",NA,NA,NA,NA,NA
"2082","Gustavo","omc000035.xml","omc000035-image-9.png","cosmogram","reigram","reigramfamily","descriptive",NA,NA,NA,NA,NA
"1590","Gustavo","omc000032.xml","omc000032-image-8.png","cosmogram","reigram","reigramfamily","descriptive",NA,NA,NA,NA,NA
"2067","Gustavo","omc000035.xml","omc000035-figure-31.png","cosmogram","topogram","ecogram","statistical",NA,NA,NA,NA,NA
"642","Gustavo","omc000015.xml","omc000015-image-11.png","cosmogram","reigram","reigramfamily","descriptive",NA,NA,NA,NA,NA
"644","Gustavo","omc000015.xml","omc000015-image-12.png","cosmogram","reigram","reigramfamily","descriptive",NA,NA,NA,NA,NA
"647","Gustavo","omc000015.xml","omc000015-image-15.png","cosmogram","reigram","reigramfamily","descriptive",NA,NA,NA,NA,NA
"524","Gustavo","omc000006.xml","omc000006-figure-9.png","cosmogram","topogram","ecogram","statistical",NA,NA,NA,NA,NA
"2004","Hammood","omc000033.xml","omc000033-fig-40.png","cosmogram","reigram","reigramfamily","descriptive",NA,NA,NA,NA,NA
"1976","Hammood","omc000033.xml","omc000033-fig-8.png","cosmogram","reigram","reigramfamily","descriptive",NA,NA,NA,NA,NA
"1986","Hammood","omc000033.xml","omc000033-fig-20.png","cosmogram","reigram","reigramfamily","descriptive",NA,NA,NA,NA,NA
"829","Hammood","omc000026.xml","omc000026-fig-6.6.png","cosmogram","topogram","ecogram","statistical",NA,NA,NA,NA,NA
"1973","Hammood","omc000033.xml","omc000033-fig-5.png","cosmogram","reigram","reigramfamily","descriptive",NA,NA,NA,NA,NA
"1995","Hammood","omc000033.xml","omc000033-fig-31.png","cosmogram","reigram","reigramfamily","descriptive",NA,NA,NA,NA,NA
"935","Hammood","omc000026.xml","omc000026-fig-17.1.png","cosmogram","topogram","ecogram","statistical",NA,NA,NA,NA,NA
"798","Hammood","omc000026.xml","omc000026-photo-4.png","cosmogram","reigram","reigramfamily","descriptive",NA,NA,NA,NA,NA
"1985","Hammood","omc000033.xml","omc000033-fig-19.png","cosmogram","reigram","reigramfamily","descriptive",NA,NA,NA,NA,NA
"2652","June","omc000055.xml","omc000055-figure-12.png","cosmogram","reigram","reigramfamily","descriptive",NA,NA,NA,NA,NA
"284","Kyunghye","omc000004.xml","omc000004-figure-204.png","cosmogram","topogram","ecogram","statistical",NA,NA,NA,NA,NA
"410","Kyunghye","omc000004.xml","omc000004-figure-330.png","cosmogram","topogram","ecogram","statistical",NA,NA,NA,NA,NA
"712","Kyunghye","omc000021.xml","omc000021-figure-1.png","cosmogram","reigram","reigramfamily","descriptive",NA,NA,NA,NA,NA
"407","Kyunghye","omc000004.xml","omc000004-figure-327.png","cosmogram","topogram","ecogram","statistical",NA,NA,NA,NA,NA
"266","Kyunghye","omc000004.xml","omc000004-figure-186.png","cosmogram","topogram","ecogram","statistical",NA,NA,NA,NA,NA
"126","Kyunghye","omc000004.xml","omc000004-figure-44.png","cosmogram","reigram","reigramfamily","descriptive",NA,NA,NA,NA,NA
"345","Kyunghye","omc000004.xml","omc000004-figure-265.png","cosmogram","topogram","ecogram","statistical",NA,NA,NA,NA,NA
"351","Kyunghye","omc000004.xml","omc000004-figure-271.png","cosmogram","topogram","ecogram","statistical",NA,NA,NA,NA,NA
"297","Kyunghye","omc000004.xml","omc000004-figure-217.png","cosmogram","topogram","ecogram","statistical",NA,NA,NA,NA,NA
"1287","Marcela","omc000031.xml","omc000031-picture-50.png","cosmogram","reigram","reigramfamily","descriptive",NA,NA,NA,NA,NA
"683","Marcela","omc000017.xml","omc000017-picture-11.png","cosmogram","reigram","reigramfamily","descriptive",NA,NA,NA,NA,NA
"682","Marcela","omc000017.xml","omc000017-picture-10.png","cosmogram","reigram","reigramfamily","descriptive",NA,NA,NA,NA,NA
"1039","Marcela","omc000027.xml","omc000027-figure-4-2.png","cosmogram","topogram","ecogram","statistical",NA,NA,NA,NA,NA
"2784","Marcela","omc000070.xml","omc000070-pic-5.png","cosmogram","reigram","reigramfamily","descriptive",NA,NA,NA,NA,NA
"1478","Marcela","omc000031.xml","omc000031-picture-4.png","cosmogram","reigram","reigramfamily","descriptive",NA,NA,NA,NA,NA
"2483","Marcela","omc000042.xml","omc000042-pic-3.png","cosmogram","reigram","reigramfamily","descriptive",NA,NA,NA,NA,NA
"1483","Marcela","omc000031.xml","omc000031-picture-13.png","cosmogram","reigram","reigramfamily","descriptive",NA,NA,NA,NA,NA
"1144","Marcela","omc000027.xml","omc000027-picture-16.png","cosmogram","reigram","reigramfamily","descriptive",NA,NA,NA,NA,NA
"713","Gina","omc000022.xml","omc000022-figure-1.png","typogram","organigram","organigramfamily","arborescent",NA,NA,NA,NA,NA
"1702","Gustavo","omc000032.xml","omc000032-table-A2.5.png","typogram","cellulogram","cellulogramfamily","format","quadrangular",NA,NA,NA,NA
"1822","Gustavo","omc000032.xml","omc000032-table-A2.37h.png","typogram","cellulogram","cellulogramfamily","format","quadrangular",NA,NA,NA,NA
"1710","Gustavo","omc000032.xml","omc000032-table-A2.13.png","typogram","cellulogram","cellulogramfamily","format","quadrangular",NA,NA,NA,NA
"1614","Gustavo","omc000032.xml","omc000032-image-11.png","typogram","scriptogram","scriptogramfamily","phrase",NA,NA,NA,NA,NA
"2073","Gustavo","omc000035.xml","omc000035-figure-36.png","typogram","organigram","organigramfamily","arborescent",NA,NA,NA,NA,NA
"2102","Gustavo","omc000035.xml","omc000035-table-4q.png","typogram","cellulogram","cellulogramfamily","format","quadrangular",NA,NA,NA,NA
"1729","Gustavo","omc000032.xml","omc000032-table-A2.26f.png","typogram","cellulogram","cellulogramfamily","format","quadrangular",NA,NA,NA,NA
"1638","Gustavo","omc000032.xml","omc000032-table-17.png","typogram","cellulogram","cellulogramfamily","format","quadrangular",NA,NA,NA,NA
"2423","Gustavo","omc000041.xml","omc000041-table-A39.png","typogram","cellulogram","cellulogramfamily","format","quadrangular",NA,NA,NA,NA
"1809","Gustavo","omc000032.xml","omc000032-table-A2.36g.png","typogram","cellulogram","cellulogramfamily","format","quadrangular",NA,NA,NA,NA
"1910","Gustavo","omc000032.xml","omc000032-table-A2.48f.png","typogram","cellulogram","cellulogramfamily","format","quadrangular",NA,NA,NA,NA
"1897","Gustavo","omc000032.xml","omc000032-table-A2.47c.png","typogram","cellulogram","cellulogramfamily","format","quadrangular",NA,NA,NA,NA
"1820","Gustavo","omc000032.xml","omc000032-table-A2.37f.png","typogram","cellulogram","cellulogramfamily","format","quadrangular",NA,NA,NA,NA
"663","Hammood","omc000016.xml","omc000016-fig-06.png","typogram","scriptogram","scriptogramfamily","list",NA,NA,NA,NA,NA
"880","Hammood","omc000026.xml","omc000026-fig-13.13.png","typogram","cellulogram","cellulogramfamily","format","quadrangular",NA,NA,NA,NA
"925","Hammood","omc000026.xml","omc000026-table-16-unnumbered.png","typogram","cellulogram","cellulogramfamily","format","quadrangular",NA,NA,NA,NA
"657","Hammood","omc000016.xml","omc000016-fig-00.png","typogram","scriptogram","scriptogramfamily","phrase",NA,NA,NA,NA,NA
"703","Hammood","omc000018.xml","omc000018-table-02.png","typogram","cellulogram","cellulogramfamily","format","linear",NA,NA,NA,NA
"854","Hammood","omc000026.xml","omc000026-fig-11.4.png","typogram","scriptogram","scriptogramfamily","phrase",NA,NA,NA,NA,NA
"623","Hammood","omc000014.xml","omc000014-table-01.png","typogram","cellulogram","cellulogramfamily","format","quadrangular",NA,NA,NA,NA
"607","Hammood","omc000014.xml","omc000014-fig-16.png","typogram","scriptogram","scriptogramfamily","phrase",NA,NA,NA,NA,NA
"658","Hammood","omc000016.xml","omc000016-fig-01.png","typogram","scriptogram","scriptogramfamily","list",NA,NA,NA,NA,NA
"659","Hammood","omc000016.xml","omc000016-fig-02.png","typogram","scriptogram","scriptogramfamily","phrase",NA,NA,NA,NA,NA
"831","Hammood","omc000026.xml","omc000026-fig-6.8.png","typogram","scriptogram","scriptogramfamily","phrase",NA,NA,NA,NA,NA
"608","Hammood","omc000014.xml","omc000014-fig-17.png","typogram","scriptogram","scriptogramfamily","list",NA,NA,NA,NA,NA
"66","Hammood","omc000003.xml","omc000003-table-04.png","typogram","cellulogram","cellulogramfamily","format","quadrangular",NA,NA,NA,NA
"455","Kyunghye","omc000004.xml","omc000004-figure-375.png","typogram","cellulogram","cellulogramfamily","format","quadrangular",NA,NA,NA,NA
"454","Kyunghye","omc000004.xml","omc000004-figure-374.png","typogram","cellulogram","cellulogramfamily","format","quadrangular",NA,NA,NA,NA
"492","Kyunghye","omc000004.xml","omc000004-figure-411.png","typogram","cellulogram","cellulogramfamily","format","quadrangular",NA,NA,NA,NA
"502","Kyunghye","omc000004.xml","omc000004-figure-421.png","typogram","cellulogram","cellulogramfamily","format","quadrangular",NA,NA,NA,NA
"205","Kyunghye","omc000004.xml","omc000004-figure-124.png","typogram","cellulogram","cellulogramfamily","format","quadrangular",NA,NA,NA,NA
"471","Kyunghye","omc000004.xml","omc000004-figure-391.png","typogram","cellulogram","cellulogramfamily","format","quadrangular",NA,NA,NA,NA
"585","Kyunghye","omc000013.xml","omc000013-figure-5-5.png","typogram","cellulogram","cellulogramfamily","format","linear",NA,NA,NA,NA
"708","Kyunghye","omc000020.xml","omc000020-figure1.png","typogram","scriptogram","scriptogramfamily","list",NA,NA,NA,NA,NA
"114","Kyunghye","omc000004.xml","omc000004-figure-31.png","typogram","cellulogram","cellulogramfamily","format","quadrangular",NA,NA,NA,NA
"506","Kyunghye","omc000004.xml","omc000004-figure-425.png","typogram","cellulogram","cellulogramfamily","format","quadrangular",NA,NA,NA,NA
"2629","Kyunghye","omc000047.xml","omc000047-fig-1.png","typogram","organigram","organigramfamily","arborescent",NA,NA,NA,NA,NA
"445","Kyunghye","omc000004.xml","omc000004-figure-365.png","typogram","cellulogram","cellulogramfamily","format","quadrangular",NA,NA,NA,NA
"505","Kyunghye","omc000004.xml","omc000004-figure-424.png","typogram","cellulogram","cellulogramfamily","format","quadrangular",NA,NA,NA,NA
"2489","Marcela","omc000042.xml","omc000042-table-10-4.png","typogram","cellulogram","cellulogramfamily","format","quadrangular",NA,NA,NA,NA
"2572","Marcela","omc000042.xml","omc000042-table-10-87.png","typogram","cellulogram","cellulogramfamily","format","quadrangular",NA,NA,NA,NA
"1128","Marcela","omc000027.xml","omc000027-figure-12-1.png","typogram","scriptogram","scriptogramfamily","phrase",NA,NA,NA,NA,NA
"2528","Marcela","omc000042.xml","omc000042-table-10-43.png","typogram","cellulogram","cellulogramfamily","format","quadrangular",NA,NA,NA,NA
"2535","Marcela","omc000042.xml","omc000042-table-10-50.png","typogram","cellulogram","cellulogramfamily","format","quadrangular",NA,NA,NA,NA
"2520","Marcela","omc000042.xml","omc000042-table-10-35.png","typogram","cellulogram","cellulogramfamily","format","quadrangular",NA,NA,NA,NA
"2488","Marcela","omc000042.xml","omc000042-table-10-3.png","typogram","cellulogram","cellulogramfamily","format","quadrangular",NA,NA,NA,NA
"2504","Marcela","omc000042.xml","omc000042-table-10-19.png","typogram","cellulogram","cellulogramfamily","format","quadrangular",NA,NA,NA,NA
"1334","Marcela","omc000031.xml","omc000031-table-10-2.png","typogram","cellulogram","cellulogramfamily","format","quadrangular",NA,NA,NA,NA
"2568","Marcela","omc000042.xml","omc000042-table-10-83.png","typogram","cellulogram","cellulogramfamily","format","quadrangular",NA,NA,NA,NA
"2260","Marcela","omc000039.xml","omc000039-fig-68.png","typogram","cellulogram","cellulogramfamily","format","quadrangular",NA,NA,NA,NA
"2157","Marcela","omc000038.xml","omc000038table4.png","typogram","cellulogram","cellulogramfamily","format","quadrangular",NA,NA,NA,NA
"1468","Marcela","omc000031.xml","omc000031-table-17-1.png","typogram","cellulogram","cellulogramfamily","format","quadrangular",NA,NA,NA,NA
"1461","Marcela","omc000031.xml","omc000031-figure-17-1.png","analogram","curvigram","curvigramfamily","description",NA,NA,NA,NA,NA
"1516","Gustavo","omc000032.xml","omc000032-figure-9.png","analogram","curvigram","curvigramfamily","description",NA,NA,NA,NA,NA
"1251","Marcela","omc000031.xml","omc000031-figure-4-11.png","analogram","histocurvigram","histocurvigramfamily","histocurvigramqualifier",NA,NA,NA,NA,NA
"1318","Marcela","omc000031.xml","omc000031-figure-9-9.png","analogram","histocurvigram","histocurvigramfamily","histocurvigramqualifier",NA,NA,NA,NA,NA
"81","Hammood","omc000003.xml","omc000003-fig-04.png","analogram","histocurvigram","histocurvigramfamily","histocurvigramqualifier",NA,NA,NA,NA,NA
"1141","Marcela","omc000027.xml","omc000027-figure-13-3.png","analogram","histocurvigram","histocurvigramfamily","histocurvigramqualifier",NA,NA,NA,NA,NA
"1305","Marcela","omc000031.xml","omc000031-figure-8-6.png","analogram","histocurvigram","histocurvigramfamily","histocurvigramqualifier",NA,NA,NA,NA,NA
"1578","Gustavo","omc000032.xml","omc000032-figure-46.png","analogram","histocurvigram","histocurvigramfamily","histocurvigramqualifier",NA,NA,NA,NA,NA
"2320","Gustavo","omc000041.xml","omc000041-figure-27.png","analogram","morphogram","radial","description",NA,NA,NA,NA,NA
"27","Marcela","omc000001.xml","omc000001-figure-26.png","typogram","organigram","organigramfamily","arborescent",NA,NA,NA,NA,NA
"636","Gustavo","omc000015.xml","omc000015-figure-1.png","typogram","organigram","organigramfamily","arborescent",NA,NA,NA,NA,NA
"1304","Marcela","omc000031.xml","omc000031-figure-8-5.png","typogram","organigram","organigramfamily","arborescent",NA,NA,NA,NA,NA
"2163","Marcela","omc000038.xml","omc000038fig9.png","analogram","puncticurvigram","puncticurvigramfamily","puncticurvigramqualifier",NA,NA,NA,NA,NA
"7","Marcela","omc000001.xml","omc000001-figure-6.png","analogram","punctigram","punctigramfamily","univariate",NA,NA,NA,NA,NA
"2475","Marcela","omc000042.xml","omc000042-fig-8-1.png","analogram","punctigram","punctigramfamily","bivariate",NA,NA,NA,NA,NA
"2276","Gustavo","omc000041.xml","omc000041-figure-6.png","analogram","punctigram","punctigramfamily","bivariate",NA,NA,NA,NA,NA
"1286","Marcela","omc000031.xml","omc000031-figure-7-1.png","analogram","punctigram","punctigramfamily","bivariate",NA,NA,NA,NA,NA
"2280","Gustavo","omc000041.xml","omc000041-figure-8.png","analogram","punctigram","punctigramfamily","bivariate",NA,NA,NA,NA,NA
"1074","Marcela","omc000027.xml","omc000027-figure-7-7.png","analogram","curvigram","curvigramfamily","description",NA,NA,NA,NA,NA
"1464","Marcela","omc000031.xml","omc000031-figure-17-4.png","analogram","curvigram","curvigramfamily","description",NA,NA,NA,NA,NA
"1005","Marcela","omc000027.xml","omc000027-figure-2-5.png","analogram","histocurvigram","histocurvigramfamily","histocurvigramqualifier",NA,NA,NA,NA,NA
"1252","Marcela","omc000031.xml","omc000031-figure-4-12.png","analogram","histocurvigram","histocurvigramfamily","histocurvigramqualifier",NA,NA,NA,NA,NA
"2076","Gustavo","omc000035.xml","omc000035-figure-38.png","analogram","histocurvigram","histocurvigramfamily","histocurvigramqualifier",NA,NA,NA,NA,NA
"1316","Marcela","omc000031.xml","omc000031-figure-9-7.png","analogram","histocurvigram","histocurvigramfamily","histocurvigramqualifier",NA,NA,NA,NA,NA
"738","Marcela","omc000023.xml","omc000023fig19.png","analogram","histocurvigram","histocurvigramfamily","histocurvigramqualifier",NA,NA,NA,NA,NA
"1577","Gustavo","omc000032.xml","omc000032-figure-45.png","analogram","histocurvigram","histocurvigramfamily","histocurvigramqualifier",NA,NA,NA,NA,NA
"2202","Marcela","omc000039.xml","omc000039-fig-18.png","typogram","organigram","organigramfamily","arborescent",NA,NA,NA,NA,NA
"2240","Marcela","omc000039.xml","omc000039-fig-50.png","typogram","organigram","organigramfamily","arborescent",NA,NA,NA,NA,NA
"2046","Gustavo","omc000035.xml","omc000035-figure-13.png","typogram","organigram","organigramfamily","arborescent",NA,NA,NA,NA,NA
"2756","Marcela","omc000065.xml","omc000065-fig-8.png","analogram","histogram","proportional","propband",NA,NA,NA,NA,NA
"2132","Marcela","omc000036.xml","omc000036fig16.png","analogram","puncticurvigram","puncticurvigramfamily","puncticurvigramqualifier",NA,NA,NA,NA,NA
"15","Marcela","omc000001.xml","omc000001-figure-14.png","analogram","punctigram","punctigramfamily","bivariate",NA,NA,NA,NA,NA
"30","Marcela","omc000001.xml","omc000001-figure-29.png","analogram","punctigram","punctigramfamily","bivariate",NA,NA,NA,NA,NA
"741","Marcela","omc000023.xml","omc000023fig22.png","analogram","punctigram","punctigramfamily","bivariate",NA,NA,NA,NA,NA
"1376","Marcela","omc000031.xml","omc000031-figure-12-13.png","analogram","punctigram","punctigramfamily","bivariate",NA,NA,NA,NA,NA
"1561","Gustavo","omc000032.xml","omc000032-figure-39.png","analogram","punctigram","punctigramfamily","bivariate",NA,NA,NA,NA,NA
